<?xml version="1.0" encoding="utf-8"?>
<!-- Generator: Adobe Illustrator 19.2.1, SVG Export Plug-In . SVG Version: 6.00 Build 0)  -->
<svg version="1.1" id="Layer_1" xmlns="http://www.w3.org/2000/svg" xmlns:xlink="http://www.w3.org/1999/xlink" x="0px" y="0px"
	 viewBox="0 0 69.2 52.6" style="enable-background:new 0 0 69.2 52.6;" xml:space="preserve">
<style type="text/css">
	.st0{fill:#16B8C8;}
	.st1{fill:#16B8C8;stroke:#16B8C8;stroke-miterlimit:10;}
</style>
<title>lowestpriceshipping</title>
<path class="st0" d="M67.8,44h-6.2c-0.4,0.1-0.8-0.1-1-0.5c-0.7-2.5-4-6.7-8.2-6.7s-7.5,4.2-8.2,6.7c-0.1,0.4-0.6,0.7-1,0.6H32.5
	c-1.6,0-3.9-3.1-3.9-4.2V2c0-0.7,0.6-1.6,2.7-1.6c0.2,0,0.6-0.2,0.8-0.2c0.2-0.1,0.3-0.1,0.5-0.2h35c0.4,0.1,0.8,0.3,1.1,0.7
	c0.8,1.3,0.8,41.4,0,42.9C68.4,43.9,68.1,44,67.8,44z M62.3,42h4.6c0.5-5,0.5-35,0.1-40H32.6c-0.1,0-0.5,0.2-0.7,0.2
	c-0.4,0.1-0.8,0.2-1.3,0.2v37.4c0.4,0.9,1.2,1.7,2.1,2.2h9.7c1.3-3,5.2-7.6,9.9-7.6S61,39,62.3,42L62.3,42z"/>
<path class="st0" d="M4.3,43.3C3.1,43.3,1.9,42.9,1,42c-0.7-0.8-1.1-1.8-1-2.8V21.4c0-0.3,0.2-0.6,0.4-0.8l14.8-10.2
	c0.2-0.2,0.3-0.3,0.6-0.4H26c0.6,0.1,1,0.6,1,1.2v30.5c0,0.4-0.3,0.8-0.7,1c-1,0.3-2,0.5-3,0.5c-0.4,0-0.8-0.3-1-0.7
	c-1.5-4.4-6.2-6.8-10.6-5.3C9.2,38,7.3,40,6.4,42.5c-0.1,0.4-0.5,0.7-0.9,0.7H5H4.4L4.3,43.3L4.3,43.3z M1.7,22v17.3
	c-0.1,0.5,0,1,0.3,1.4c0.4,0.5,1,0.7,1.7,0.6v0.2l0,0v-0.1h0.8c1.7-3.9,5.5-6.5,9.8-6.5c4.2,0,8,2.5,9.7,6.4
	c0.4-0.1,0.7-0.2,1.1-0.3V12h-8.8L1.7,22z"/>
<path class="st0" d="M14.4,52.6c-3.9,0-7-3.1-7-7s3.1-7,7-7s7,3.1,7,7l0,0C21.4,49.5,18.2,52.6,14.4,52.6z M14.4,40.6
	c-2.8,0-5,2.2-5,5s2.2,5,5,5s5-2.2,5-5C19.4,42.8,17.2,40.5,14.4,40.6C14.4,40.5,14.4,40.5,14.4,40.6L14.4,40.6z"/>
<path class="st0" d="M52.4,52.6c-3.9,0-7-3.1-7-7s3.1-7,7-7s7,3.1,7,7l0,0C59.4,49.5,56.2,52.6,52.4,52.6z M52.4,40.6
	c-2.8,0-5,2.2-5,5s2.2,5,5,5s5-2.2,5-5C57.4,42.8,55.2,40.5,52.4,40.6C52.4,40.5,52.4,40.5,52.4,40.6L52.4,40.6z"/>
<path class="st1" d="M21.5,24H7.4c-0.1,0-0.2,0-0.4,0c-0.1-0.1-0.1-0.2-0.1-0.3c0-0.6,0.2-2.6,0.7-3.2s7.4-5,9.5-6.3
	c0.1-0.1,0.2-0.2,0.3-0.3h4.1c0.3,0,0.2,0.6,0.2,0.9v9C21.7,24.2,21.8,24,21.5,24z M8,23h12.7v-8h-3.2c-3.4,2-8.7,5.4-9.1,5.8
	C8.1,21.5,8,22.3,8,23L8,23z"/>
</svg>
